…
Did this work? Yes!

``` r
cv_df |> pull(train) |> nth(1)
```

    ## # A tibble: 176 × 3
    ##    range logratio    id
    ##    <dbl>    <dbl> <int>
    ##  1   390  -0.0504     1
    ##  2   391  -0.0601     2
    ##  3   393  -0.0419     3
    ##  4   394  -0.0510     4
    ##  5   396  -0.0599     5
    ##  6   400  -0.0399     8
    ##  7   402  -0.0294     9
    ##  8   403  -0.0395    10
    ##  9   405  -0.0476    11
    ## 10   406  -0.0604    12
    ## # ℹ 166 more rows

``` r
cv_df |> pull(train) |> nth(2)
```

    ## # A tibble: 176 × 3
    ##    range logratio    id
    ##    <dbl>    <dbl> <int>
    ##  1   390  -0.0504     1
    ##  2   391  -0.0601     2
    ##  3   393  -0.0419     3
    ##  4   396  -0.0599     5
    ##  5   400  -0.0399     8
    ##  6   403  -0.0395    10
    ##  7   405  -0.0476    11
    ##  8   406  -0.0604    12
    ##  9   408  -0.0312    13
    ## 10   409  -0.0382    14
    ## # ℹ 166 more rows

``` r
cv_df |> pull(train) |> nth(3)
```

    ## # A tibble: 176 × 3
    ##    range logratio    id
    ##    <dbl>    <dbl> <int>
    ##  1   390  -0.0504     1
    ##  2   391  -0.0601     2
    ##  3   393  -0.0419     3
    ##  4   394  -0.0510     4
    ##  5   397  -0.0284     6
    ##  6   402  -0.0294     9
    ##  7   405  -0.0476    11
    ##  8   406  -0.0604    12
    ##  9   408  -0.0312    13
    ## 10   409  -0.0382    14
    ## # ℹ 166 more rows
…
